data_req,data_type,visual_type,chart_outcome,chart_based_insight,overall_insights
All Data Requirements Met,ball_speed,ball_speed_density,good_bs_density,good_bs_density_feedback,this
All Data Requirements Met,ball_speed,ball_speed_density,ok_bs_density,ok_bs_density_feedback,this
All Data Requirements Met,ball_speed,ball_speed_density,bad_bs_density,bad_bs_density_feedback,this
All Data Requirements Met,launch_angle,launch_angle_density,good_la_density,good_la_density_feedback,this
All Data Requirements Met,launch_angle,launch_angle_density,ok_bs_density,ok_la_density_feedback,this
All Data Requirements Met,launch_angle,launch_angle_density,bad_la_density,bad_la_density_feedback,this
Not enough data by club,,,,,
Not enough data by club after outlier filtering,,,,,
